{
  "project_info": {
    "project_number": "67806170398",
    "firebase_url": "https://facedetector-47fd4.firebaseio.com",
    "project_id": "facedetector-47fd4",
    "storage_bucket": "facedetector-47fd4.appspot.com"
  },
  "client": [
    {
      "client_info": {
        "mobilesdk_app_id": "1:67806170398:android:0e0a2b929594526fab4d0f",
        "android_client_info": {
          "package_name": "com.example.face_detection"
        }
      },
      "oauth_client": [
        {
          "client_id": "67806170398-t6n1ah90smqeutdccbsgar55kgp48qh6.apps.googleusercontent.com",
          "client_type": 3
        }
      ],
      "api_key": [
        {
          "current_key": "AIzaSyBGfhrpDnMU0K7NYTXlPL7ujQRWpe4eGDk"
        }
      ],
      "services": {
        "appinvite_service": {
          "other_platform_oauth_client": [
            {
              "client_id": "67806170398-t6n1ah90smqeutdccbsgar55kgp48qh6.apps.googleusercontent.com",
              "client_type": 3
            }
          ]
        }
      }
    }
  ],
  "configuration_version": "1"
}